{
  "res": {
      "className": "PrinterStatus",
      "byte": 18,
      "bits": "00010010",
      "statuses": [
          {
              "bit": 0,
              "value": 0,
              "label": "Fixed",
              "status": "ok"
          },
          {
              "bit": 1,
              "value": 1,
              "label": "Fixed",
              "status": "ok"
          },
          {
              "bit": 2,
              "value": 0,
              "label": "Drawer kick-out connector pin 3 is LOW",
              "status": "ok"
          },
          {
              "bit": 3,
              "value": 0,
              "label": "Online",
              "status": "ok"
          },
          {
              "bit": 4,
              "value": 1,
              "label": "Fixed",
              "status": "ok"
          },
          {
              "bit": 5,
              "value": 0,
              "label": "Not waiting for online recovery",
              "status": "ok"
          },
          {
              "bit": 6,
              "value": 0,
              "label": "Paper feed button is not being pressed",
              "status": "ok"
          },
          {
              "bit": 7,
              "value": 0,
              "label": "Fixed",
              "status": "ok"
          }
      ]
  },
  "connection": true
}